{
    "name": "smoothyd.interactionmanager",
    "references": [
        "GUID:9f66dd75e2f37b846a0eb14ba8e7e830"
    ],
    "includePlatforms": [],
    "excludePlatforms": [],
    "allowUnsafeCode": false,
    "overrideReferences": false,
    "precompiledReferences": [],
    "autoReferenced": true,
    "defineConstraints": [],
    "versionDefines": [],
    "noEngineReferences": false
}